<svg width="13" height="20" viewBox="0 0 13 20" fill="none" xmlns="http://www.w3.org/2000/svg">
<path d="M12.51 1.8701L10.73 0.100098L0.839996 10.0001L10.74 19.9001L12.51 18.1301L4.38 10.0001L12.51 1.8701Z" fill="white"/>
</svg>
