<svg width="28" height="28" viewBox="0 0 28 28" fill="none" xmlns="http://www.w3.org/2000/svg">
<path fill-rule="evenodd" clip-rule="evenodd" d="M14.0001 0.666748C6.64008 0.666748 0.666748 6.64008 0.666748 14.0001C0.666748 21.3601 6.64008 27.3334 14.0001 27.3334C21.3601 27.3334 27.3334 21.3601 27.3334 14.0001C27.3334 6.64008 21.3601 0.666748 14.0001 0.666748ZM12.6667 23.3334V20.6667H15.3334V23.3334H12.6667ZM16.8934 14.2267L18.0934 13.0001C18.8534 12.2401 19.3334 11.1734 19.3334 10.0001C19.3334 7.05341 16.9467 4.66675 14.0001 4.66675C11.0534 4.66675 8.66675 7.05341 8.66675 10.0001H11.3334C11.3334 8.53341 12.5334 7.33341 14.0001 7.33341C15.4667 7.33341 16.6667 8.53341 16.6667 10.0001C16.6667 10.7334 16.3734 11.4001 15.8801 11.8801L14.2267 13.5601C13.2667 14.5334 12.6667 15.8667 12.6667 17.3334V18.0001H15.3334C15.3334 16.0001 15.9334 15.2001 16.8934 14.2267Z" fill="white"/>
</svg>
