{
	"datos" : {
		"insights" : [
			{
				"id": "11-10ba3cfdb-105103-4fa10-10e0a-5eb10ded1010d104-10", 
				"tipoInsight": "1012-B",
				"portfolio": "101570-1",
				"insightCode": "1012",
				"cardContent" : {
					"title": "Nuevo abono",					
					"desc" : "Se ha abonado <b>$1,584.38</b> en la Cuenta Trading de su portafolio 100001-1",
					"button": "Más detalle",
					"icon": "icon-insight-cash",
					"template": 6,
					"note_insight": "1020 Notif de Abonos"
				},
				"modalContent" : {
					"title": "Nuevo abono",
					"icon" : "icon-insight-cash",
					"desc" : "<p>Hemos realizado un abono a la Cuenta Trading de su portafolio <b>10000-1</b>, por concepto de pago de cupón del bono <b>BANCOLOMBIA 6.25 05-12-2026</b>, por el monto de:</p>",
					"ammount": "$1,584.38",
					"desc2": "<p>Puede revisar su saldo disponible y conversar con su Asesor Financiero sobre nuevas alternativas de inversión.</p>",
					"button2": "Más detalle de este producto",
					"button2link": "/ver-detalles",
					"button3": "Ver mi saldo disponible",
					"button3link": "/ver-saldo"
				}
			}
			,
			{
				"id": "10-10ba3cfdb-105103-4fa10-10e0a-5eb10ded1010d104-10", 
				"tipoInsight": "1012-B",
				"portfolio": "101570-1",
				"insightCode": "1012",
				"cardContent" : {
					"title": "Recomendación de venta",					
					"desc" : "Le sugerimos evaluar su exposición en el bono Bancolombia",
					"button": "Ver recomendación",
					"icon": "icon-insight-sobreexpuesto",
					"template": 6,
					"note_insight": "1019 Cambio de producto no recomendado - Bono"
				},
				"modalContent" : {
					"title": "¿Por qué evaluar mi exposición en este producto?",
					"icon" : "icon-insight-sobreexpuesto",
					"desc" : "<p>El bono <strong>Bancolombia</strong>, que forma parte de su portafolio <strong>10000-1</strong>, ha pasado a tener una calificación negativa.</p><p>Hemos preparado un resumen claro y conciso explicando los fundamentos de esta recomendación.</p>",
					"download": {			
						"text": "Descargar resumen",
						"link": "/link-download"
					},
					"desc2": "<p><b class='blue'>Le sugerimos</b> evaluarlo con su Asesor Financiero y definir así la mejor alternativa para usted.</p>",
					"button1": "Evaluar con mi Asesor",
					"button1link": "next",
					"button2": "Más detalle de este producto",
					"button2link": "/ver-detalles"
				},
				"modalContent2" : {
					"title": "Contacte a su asesor",
					"icon" : "icon-modal-contact",
					"desc" : "<p>Detalle su consulta para que su Asesor Financiero se comunique con usted a la brevedad posible.</p>",
					"value": "Estimado Asesor Financiero, deseo que me contacte por favor para evaluar mi exposición en el bono Bancolombia.",
					"button1": "Atrás",
					"button1link": "prev",
					"button2": "Enviar mensaje",
					"button2link": "send"
				},
				"modalSuccess" : {                  
                    "title": "Mensaje enviado con éxito",
                    "desc" : "<p>Estimado cliente, su asesor se comunicará con usted a la brevedad posible.</p>"
                }
			}
			,
			{
				"id": "9-9ba3cfdb-9593-4fa9-9e0a-5eb9ded99d94-9", 
				"tipoInsight": "1012-B",
				"portfolio": "101570-1",
				"insightCode": "1012",
				"cardContent" : {
					"title": "Recomendación de venta",					
					"desc" : "Le sugerimos vender el fondo Invesco US Senior Loan Fund",
					"button": "Ver recomendación",
					"icon": "icon-insight-sobreexpuesto",
					"template": 6,
					"note_insight": "1019 Cambio de producto no recomendado - Fondo"
				},
				"modalContent" : {
					"title": "¿Por qué vender este producto?",
					"icon" : "icon-insight-sobreexpuesto",
					"desc" : "<p>El fondo <strong>Invesco US Senior Loan Fund</strong>, de su portafolio <strong>10000-1</strong>, ya no forma parte de la Estrategia de Inversión que diseñamos para usted.</p><p>Hemos preparado un resumen claro y conciso explicando los fundamentos de esta recomendación.</p>",
					"download": {						
						"text": "Descargar resumen",
						"link": "/link-download"
					},
					"desc2": "<p><b class='blue'>Le sugerimos</b> evaluarlo con su Asesor Financiero y definir así la mejor alternativa para usted.</p>",
					"value": "Estimado Asesor Financiero, deseo que me contacte por favor para conversar sobre la posibilidad de vender el fondo Invesco US Senior Loan Fund.",
					"button1": "Evaluar con mi Asesor",
					"button1link": "next",
					"button2": "Más detalle de este producto",
					"button2link": "/ver-detalles"
				},
				"modalContent2" : {
					"title": "Contacte a su asesor",
					"icon" : "icon-modal-contact",
					"desc" : "<p>Detalle su consulta para que su Asesor Financiero se comunique con usted a la brevedad posible.</p>",
					"button1": "Atrás",
					"button1link": "prev",
					"button2": "Enviar mensaje",
					"button2link": "send"
				},
				"modalSuccess" : {                  
                    "title": "Mensaje enviado con éxito",
                    "desc" : "<p>Estimado cliente, su asesor se comunicará con usted a la brevedad posible.</p>"
                }
			}
			,
			{
				"id": "8-8ba3cfdb-8583-4fa9-8e0a-5eb8ded99d84-8", 
				"tipoInsight": "1012-B",
				"portfolio": "101570-1",
				"insightCode": "1012",
				"cardContent" : {
					"title": "Producto sobreexpuesto",					
					"desc" : "Le sugerimos reducir su exposición en el Fondo Aviva",
					"button": "Ver recomendación",
					"icon": "icon-insight-sobreexpuesto",
					"template": 6,
					"note_insight": "1018 Desconcentración"
				},
				"modalContent" : {
					"title": "¿Por qué reducir su exposición en este producto?",
					"icon" : "icon-insight-sobreexpuesto",
					"desc" : "<p>El <span>Fondo Aviva</span>, de su portafolio <span>10000-1</span>, tiene una exposición superior a la recomendada. Esto no es lo más adecuado ni seguro, sobre todo ante escenarios de volatilidad.</p>",
					"table1": {						
						"percent": "9%",
						"money": "$ 90,000"
					},
					"table2": {						
						"percent": "5%",
						"money": "$ 50,000"	
					},
					"desc2": "<p><b class='blue'>Le sugerimos</b> que junto con su Asesor Financiero:<p><ol><li>Evalúe reducir el <b>4%</b> de exceso de exposición en el Fondo Aviva.</li><li>Explore nuevas oportunidades de inversión luego del ajuste recomendado.</li></ol>",
					"value": "Estimado Asesor Financiero, deseo que me contacte por favor para conversar sobre la posibilidad de reducir mi exposición en el Fondo Aviva.",
					"button1": "Evaluar con mi Asesor",
					"button1link": "next",
					"button2": "Más detalle de este producto",
					"button2link": "/ver-detalles"
				},
				"modalContent2" : {
					"title": "Contacte a su asesor",
					"icon" : "icon-modal-contact",
					"desc" : "<p>Detalle su consulta para que su Asesor Financiero se comunique con usted a la brevedad posible.</p>",
					"button1": "Atrás",
					"button1link": "prev",
					"button2": "Enviar mensaje",
					"button2link": "send"
				},
				"modalSuccess" : {                  
                    "title": "Mensaje enviado con éxito",
                    "desc" : "<p>Estimado cliente, su asesor se comunicará con usted a la brevedad posible.</p>"
                }
			}
			,
			{
				"id": "7-8ba3cfdb-8583-4fa9-8e0a-5eb7ded99d74-7", 
				"tipoInsight": "1012-B",
				"portfolio": "101570-1",
				"insightCode": "1012",
				"cardContent" : {
					"title": "Perfil de inversión",					
					"desc" : "¿Cuál es el perfil de inversión ideal para su portafolio <b>10000-1</b>?",
					"button": "Defínalo aquí",
					"icon": "icon-insight-profile",
					"template": 5,
					"note_insight": "1012 Primer perfilamiento"
				},
				"modalContent" : {
					"title": "Defina el perfil de inversión de su portafolio",
					"icon" : "icon-insight-profile",
					"desc" : "<p>Es importante que <b>cada uno de sus portafolios cuenten con un perfil de inversión</b>. De esta manera, podremos recomendarle los productos que mejor se adecúen a sus objetivos.</p><p>Su siguiente portafolio aún no tiene perfil de inversión.</p>",
					"portafolios": {
						"table": {
							"id": "10000-1",
							"cod-estado": "0",
							"estado": "Sin perfil"
						}
					},
					"desc2": "<p>Defínalo mediante un cuestionario de 10 preguntas objetivas, el cual <b>le tomará menos de 10 minutos</b>.</p>",
					"button1": "Ir al cuestionario",
					"button1link": "/link",
					"button2": "Contactar a mi Asesor",
					"button2link": "next"
				},
				"modalContent2" : {
					"title": "Contacte a su asesor",
					"icon" : "icon-modal-contact",
					"desc" : "<p>Detalle su consulta para que su Asesor Financiero se comunique con usted a la brevedad posible.</p>",
					"value": "Estimado Asesor Financiero, deseo su apoyo para definir el perfil de inversión que se adecúe a los objetivos de mi portafolio 10000-1.",
					"button1": "Atrás",
					"button1link": "prev",
					"button2": "Enviar mensaje",
					"button2link": "send"
				},
				"modalSuccess" : {                  
                    "title": "Mensaje enviado con éxito",
                    "desc" : "<p>Estimado cliente, su asesor se comunicará con usted a la brevedad posible.</p>"
                }
			}
			,
			{
				"id": "1-8ba3cfdb-8583-4fa9-8e0a-5eb7ded99d74-1",
				"tipoInsight": "1011-A",
				"portfolio": "101570-1",
				"insightCode": "1012",
				"cardContent" : {
					"title": "Importante",
					"desc" : "El perfil de riesgo de su portafolio <b>10000-1</b> venció hace 23 días",
					"button": "Actualizar perfil",
					"icon": "icon-insight-profile",					
					"template": 0,
					"note_insight": "Actualización de perfil",
					"firstTime": false
				},
				"modalContent" : {
					"link": "/perfilador"
				}
			}
			,
			{
				"id": "2-8ba3cfdb-8583-4fa9-8e0a-5eb7ded99d73-2", 
				"tipoInsight": "1012-A",
				"insightCode": "1012",				
				"cardContent" : {
					"title": "Importante",
					"desc" : "Aún no termina de actualizar el perfil de su portafolio <b>10000-1</b>",
					"button": "¿Necesita ayuda?",
					"icon": "icon-insight-profile",
					"template": 1,
					"note_insight": "Refuerzo de perfilamiento",
					"firstTime": false
				},
				"modalContent" : {
					"title": "Actualice su perfil de riesgo",
					"icon" : "icon-modal-contact",
					"desc" : "<p>Hemos notado que no concluyó la actualización del Perfil de Riesgo de su portafolio <b>10000-1</b>, el cual está vencido desde hace 23 días.<p><p>En caso requiera apoyo para terminarlo, no dude en contactar a su Asesor Financiero, quien con gusto lo ayudará.</p>",
					"value": "Estimado Asesor Financiero, requiero ayuda para actualizar mi perfil de inversión.",
					"button1": "Solicitar ayuda a mi asesor",
					"button1link": "send",
					"button2": "Actualizar perfil",
					"button2link": "/perfilador"
				},
				"modalSuccess" : {                  
                    "title": "Mensaje enviado con éxito",
                    "desc" : "<p>Estimado cliente, su asesor se comunicará con usted a la brevedad posible.</p>"
                }		
			}
			,
			{
				"id": "3-8ba3cfdb-8583-4fa9-8e0a-5eb7ded99d74-3", 
				"tipoInsight": "1012-B",
				"portfolio": "101570-1",
				"insightCode": "1012",
				"cardContent" : {
					"title": "Importante",					
					"desc" : "¿Sabía que en 30 días su portafolio <b>10000-1</b> tendrá <i>cash</i> para reinvertir?",
					"button": "Saber más",
					"icon": "icon-insight-cash",
					"template": 1,
					"note_insight": "Producto por vencer",
					"firstTime": false
				},
				"modalContent" : {
					"title": "Contacte a su asesor",
					"icon" : "icon-modal-contact",
					"desc" : "<p>El producto estructurado <b>N°0021</b> de su portafolio <b>12345-1</b> vencerá el <b>30 de julio del 2022</b> y le generará disponibilidad para realizar nuevas inversiones.</p><p>Lo invitamos a contactarse con su Asesor Financiero quien con gusto le presentará nuevas alternativas de inversión.</p>",
					"value": "Estimado Asesor Financiero, quiero conocer las recomendaciones para el vencimiento de mi Producto Estructurado N°0021"
,					"button1": "Enviar mensaje",
					"button1link": "send",
					"button2": "Ya contacté a mi asesor",
					"button2link": "update"
				},
				"modalSuccess" : {                  
                    "title": "Mensaje enviado con éxito",
                    "desc" : "<p>Estimado cliente, su asesor se comunicará con usted a la brevedad posible.</p>"
                }
			}
			,
			{
				"id": "4-8ba3cfdb-8583-4fa9-8e0a-5eb7ded99d74-4", 
				"tipoInsight": "1013-A",
				"portfolio": "101570-1",
				"insightCode": "1013",				
				"cardContent" : {
					"title": "Importante",					
					"desc" : "¿Sabía que su portafolio <b>10000-1</b> tiene cash para reinvertir?",
					"button": "Saber más",
					"icon": "icon-insight-cash",
					"template": 1,
					"note_insight": "Producto vencido",
					"firstTime": true
				},
				"modalContent" : {					
					"title": "Contacte a su asesor",
					"icon" : "icon-modal-contact",
					"desc" : "<p>El producto estructurado <b>N°0021</b> de su portafolio <b>12345-1</b> venció el <b>30 de julio del 2022</b> y le generó cash disponible para realizar nuevas inversiones.<p><p>Lo invitamos a contactarse con su Asesor Financiero quien con gusto le presentará nuevas alternativas de inversión.</p>",
					"value": "Estimado Asesor Financiero, quiero conocer las recomendaciones para el vencimiento de mi Producto Estructurado N°0021",
					"button1": "Enviar mensaje",
					"button1link": "send",
					"button2": "Ya contacté a mi asesor",
					"button2link": "update"
				},
				"modalSuccess" : {                  
                    "title": "Mensaje enviado con éxito",
                    "desc" : "<p>Estimado cliente, su asesor se comunicará con usted a la brevedad posible.</p>"
                }
			}
			,
			{
				"id": "5-8ba3cfdb-8583-4fa9-8e0a-5eb7ded99d74-5", 
				"tipoInsight": "1013-B",
				"portfolio": "101570-1",
				"insightCode": "1013",				
				"cardContent" : {
					"title": "",					
					"desc" : "¿Qué esperar de su perfil Altamente Conservador en el largo plazo?",
					"button": "Ver expectativa",
					"icon": "icon-insight-profile2",
					"template": 2,
					"note_insight": "Comunicación y disciplina",
					"firstTime": true
				},
				"modalContent" : {
					"title": "Indicadores de desempeño del perfil Altamente Conservador",
					"icon" : "icon-modal-graphic",
					"desc" : "<p>Los siguientes indicadores corresponden al portafolio modelo del perfil Altamente Conservador, con el cual está registrado su portafolio <b>10001-1</b>.</p>",
					"button1": "Saber más",
					"button1link": "next",
					"button2": "Entendido",
					"button2link": "close"
				},
				"modalContent2": [
					{
						"title": "2017 - 2021",
						"desc": "<p>El portafolio modelo acumuló una rentabilidad anual de <b class='green'>+3.0%</b>, superando la expectativa inicial de +2.9%.</p>"
					},
					{
						"title": "Enero a  julio 2022",
						"desc": "<p>La rentabilidad fue de <b class='red'>-7%</b>, debido a la caída en precios de los bonos internacionales, que representan cerca del 60% del portafolio. </p>"
					},
					{
						"title": "Expectativa a largo plazo",
						"desc": "<p>La rentabilidad esperada, es decir, el promedio anual a largo plazo, <b class='green'>se ajustó de +2,9% a +4.2%</b>. Esto hará que el periodo de recuperación del portafolio sea más rápido cuando el mercado se calme.</p>"
					}
				],
				"modalContent3" : {	
					"title": "¿Qué hacer para aprovechar la proyección a largo plazo?",
					"icon" : "icon-modal-idea",
					"desc" : "<p>En los últimos 15 años, el mercado nos ha mostrado que <b>una caída como la actual es revertida a través del tiempo.</b></p>",
					"img"  : "../../private/pages/modals/img/modal-graphic-conservador.svg",
					"imgDetail" : "Desempeño del perfil Altamente Conservador en los últimos 15 años",
					"desc2" : "<p>Para que se logren beneficios en el largo plazo y se puedan revertir las pérdidas en menor tiempo, debe mantener la disciplina en las ideas de inversión de la Estrategia Trimestral que Inteligo recomienda para su perfil.</p><p>Su Asesor Financiero estará gustoso de explicarle a  detalle sobre cada una de estas ideas de inversión ¡Contáctelo!</p>",
					"button1": "Atrás",
					"button1link": "prev",
					"button2": "Contactar a mi Asesor",
					"button2link": "next"
				},
				"modalContent4" : {
					"title": "Contacte a su asesor",
					"icon" : "icon-modal-contact",
					"desc" : "<p>Estimado cliente, su Asesor Financiero estará gustoso de resolver sus consultas y explicarle a detalle las ideas de inversión de la estrategia trimestral. Escriba por este medio su consulta y se comunicará con usted a la brevedad posible.</p>",
					"value": "Estimado asesor, ....",
					"button2": "Atrás",
					"button2link": "prev",
					"button1": "Enviar mensaje",
					"button1link": "send"
				},
				"modalSuccess" : {                  
                    "title": "Mensaje enviado con éxito",
                    "desc" : "<p>Estimado cliente, su asesor se comunicará con usted a la brevedad posible.</p>"
                }
			}
			,			
			{
				"id": "6-ba3cfdb-8583-4fa9-8e0a-5eb7ded99d74-6", 
				"tipoInsight": "1014-A",
				"portfolio": "101570-1",
				"insightCode": "1013",				
				"cardContent" : {
					"title": "",					
					"desc" : "¿Cómo obtener un mejor desempeño para su portafolio 10001-1?",
					"button": "Saber más",
					"icon": "icon-insight-portfolio",
					"template": 3,
					"note_insight": "Alineamiento",
					"firstTime": false
				},
				"modalContent" : {					
					"title": "¿Cómo obtener un mejor desempeño para su portafolio? ",
					"icon" : "icon-insight-portfolio",
					"desc" : "<p>En Inteligo diseñamos un portafolio que recomendamos para cada perfil de inversionista, el cual diversifica sus activos financieros para optimizar la relación entre riesgo y retorno.</p><p>Para que su portafolio 10001-1 mejore su desempeño a largo plazo, <b>le sugerimos alinearlo a la siguiente composición de activos recomendada para su perfil Moderado:</b></p>",
					"button": "Comparar con mi portafolio",
					"buttonlink": "scroll",
					"buttonscroll": "#cardAnalisis"
				},
				"modalContent2" : [
					{
						"title" : "Cajas y equivalentes",
						"percent" : 10,
						"color": "#80CBC4"
					},
					{
						"title" : "Renta fija",
						"percent" : 40,
						"color": "#00C853"
					},
					{
						"title" : "Renta variable",
						"percent" : 35,
						"color": "#01579B"
					},
					{
						"title" : "Inv. alternativas",
						"percent" : 15,
						"color": "#FFAB00"
					}
				]
				
			}

		]
	}
}