{
  "datos": {
    "sabermas": 
      {
        "id": "1",
        "title": "¿Qué porcentaje de su patrimonio abarca su portafolio 10000-1?",
        "percent": 40,
        "icon": "icon-modal-percent",
        "desc1": "Activos que componen este portafolio",
        "tooltip": "Tenga en cuenta brindarle una mejor distribución a sus activos sobreexpuestos y por debajo del óptimo para llegar a su obj. de inversión.",
        "desc2" : "<p>Tener en cuenta que esta información le ayudará a tomar decisiones óptimas y <b>mejorar la salud financiera</b> de sus portafolios.</p>",
        "activos": [
          {
            "icon": "icon-status-alert",
            "text": "Cash y equivalentes"
          },
          {
            "icon": "icon-status-alert",
            "text": "Renta fija"
          },
          {
            "icon": "icon-status-alert",
            "text": "Renta variable"
          },
          {
            "icon": "icon-status-success",
            "text": "Inv. alternativas"
          }
        ],
        "items": [
          {
            "name": "Portafolio 1",
            "color" : "#0D47A1",
            "percent": 40
          },
          {
            "name": "Portafolio 2",
            "color" : "#F0F0F0",
            "percent": 60
          }
        ]

      }
    
  }
}