<svg width="24" height="24" viewBox="0 0 24 24" fill="none" xmlns="http://www.w3.org/2000/svg">
<path fill-rule="evenodd" clip-rule="evenodd" d="M4.5 21H3L3 3H4.5L4.5 21ZM18.129 11.25L15.4395 8.5605L16.5 7.5L21 12L16.5 16.5L15.4395 15.4395L18.129 12.75L7.5 12.75V11.25L18.129 11.25Z" fill="#1148C6"/>
</svg>
