<svg width="18" height="18" viewBox="0 0 18 18" fill="none" xmlns="http://www.w3.org/2000/svg">
<path fill-rule="evenodd" clip-rule="evenodd" d="M12.7501 3.38758C11.6401 2.64588 10.335 2.25 9 2.25C7.2114 2.25524 5.49756 2.96808 4.23282 4.23282C2.96808 5.49755 2.25524 7.2114 2.25 9C2.25 10.335 2.64588 11.6401 3.38758 12.7501C4.12928 13.8601 5.18349 14.7253 6.41689 15.2362C7.65029 15.7471 9.00749 15.8808 10.3169 15.6203C11.6262 15.3598 12.829 14.717 13.773 13.773C14.717 12.829 15.3599 11.6262 15.6203 10.3169C15.8808 9.00749 15.7471 7.65029 15.2362 6.41689C14.7253 5.18349 13.8601 4.12928 12.7501 3.38758ZM4.62489 2.45218C5.91992 1.58686 7.44248 1.125 9 1.125C11.0867 1.13111 13.0862 1.96276 14.5617 3.43829C16.0372 4.91381 16.8689 6.9133 16.875 9C16.875 10.5575 16.4131 12.0801 15.5478 13.3751C14.6825 14.6702 13.4526 15.6795 12.0136 16.2756C10.5747 16.8716 8.99127 17.0275 7.46367 16.7237C5.93607 16.4198 4.53288 15.6698 3.43154 14.5685C2.3302 13.4671 1.58018 12.0639 1.27632 10.5363C0.972461 9.00874 1.12841 7.42534 1.72445 5.98637C2.32049 4.5474 3.32985 3.31749 4.62489 2.45218ZM11.8125 5.625V6.75H7.3125V8.4375H10.6875C10.9858 8.4378 11.2718 8.55642 11.4827 8.76733C11.6936 8.97825 11.8122 9.26422 11.8125 9.5625V11.25C11.8122 11.5483 11.6935 11.8342 11.4826 12.0451C11.2717 12.256 10.9858 12.3747 10.6875 12.375H9.5625V14.0625H8.4375V12.375H6.1875V11.25H10.6875V9.5625H7.3125C7.01422 9.5622 6.72825 9.44358 6.51733 9.23267C6.30642 9.02175 6.1878 8.73578 6.1875 8.4375V6.75C6.1878 6.45172 6.30642 6.16575 6.51733 5.95483C6.72825 5.74392 7.01422 5.6253 7.3125 5.625H8.4375V3.9375H9.5625V5.625H11.8125Z" fill="#80AAF8"/>
</svg>
