<svg width="40" height="40" viewBox="0 0 40 40" fill="none" xmlns="http://www.w3.org/2000/svg">
<circle cx="20" cy="20" r="20" fill="#EEF5FE"/>
<path d="M28.0202 14.8958H25.8327V12.7083C25.8327 12.3216 25.679 11.9506 25.4055 11.6771C25.1321 11.4036 24.7611 11.25 24.3743 11.25H15.6243C15.2376 11.25 14.8666 11.4036 14.5932 11.6771C14.3197 11.9506 14.166 12.3216 14.166 12.7083V14.8958H11.9785C11.3984 14.8958 10.842 15.1263 10.4317 15.5365C10.0215 15.9468 9.79102 16.5032 9.79102 17.0833V27.2917C9.79102 27.6784 9.94466 28.0494 10.2182 28.3229C10.4916 28.5964 10.8626 28.75 11.2493 28.75H28.7493C29.1361 28.75 29.5071 28.5964 29.7805 28.3229C30.054 28.0494 30.2077 27.6784 30.2077 27.2917V17.0833C30.2077 16.5032 29.9772 15.9468 29.567 15.5365C29.1567 15.1263 28.6003 14.8958 28.0202 14.8958ZM15.6243 12.7083H24.3743V14.8958H15.6243V12.7083ZM28.7493 27.2917H11.2493V20.7292H17.0827V24.375H22.916V20.7292H28.7493V27.2917ZM18.541 20.7292H21.4577V22.9167H18.541V20.7292ZM11.2493 19.2708V17.0833C11.2493 16.8899 11.3262 16.7045 11.4629 16.5677C11.5997 16.431 11.7851 16.3542 11.9785 16.3542H28.0202C28.2136 16.3542 28.399 16.431 28.5358 16.5677C28.6725 16.7045 28.7493 16.8899 28.7493 17.0833V19.2708H11.2493Z" fill="url(#paint0_linear_404_4163)"/>
<defs>
<linearGradient id="paint0_linear_404_4163" x1="9.79102" y1="21.0938" x2="30.2082" y2="21.0835" gradientUnits="userSpaceOnUse">
<stop stop-color="#233E99"/>
<stop offset="1" stop-color="#2765F5"/>
</linearGradient>
</defs>
</svg>
