<svg width="14" height="15" viewBox="0 0 14 15" fill="none" xmlns="http://www.w3.org/2000/svg">
<path d="M12.375 1.125H10.125V0H9V1.125H4.5V0H3.375V1.125H1.125C0.50625 1.125 0 1.63125 0 2.25V13.5C0 14.1188 0.50625 14.625 1.125 14.625H12.375C12.9938 14.625 13.5 14.1188 13.5 13.5V2.25C13.5 1.63125 12.9938 1.125 12.375 1.125ZM12.375 13.5H1.125V5.625H12.375V13.5ZM12.375 4.5H1.125V2.25H3.375V3.375H4.5V2.25H9V3.375H10.125V2.25H12.375V4.5Z" fill="#233E99"/>
</svg>
