<svg width="10" height="11" viewBox="0 0 10 11" fill="none" xmlns="http://www.w3.org/2000/svg">
<path d="M4.82322 9.67678L5 9.85355L5.17678 9.67678L8.92678 5.92678L9.10355 5.75L8.92678 5.57322L8.39803 5.04447L8.22137 4.86781L8.04459 5.04436L5.625 7.46076L5.625 0.5L5.625 0.25H5.375H4.625H4.375V0.5L4.375 7.46076L1.95541 5.04436L1.77863 4.86781L1.60197 5.04447L1.07322 5.57322L0.896447 5.75L1.07322 5.92678L4.82322 9.67678Z" fill="#C73723" stroke="#C73723" stroke-width="0.5"/>
</svg>
