<svg width="37" height="42" viewBox="0 0 37 42" fill="none" xmlns="http://www.w3.org/2000/svg">
<g filter="url(#filter0_dd_858_24796)">
<rect x="32" y="34" width="32" height="32" rx="2" transform="rotate(-180 32 34)" fill="white"/>
<path d="M12.1793 17.9293L12.1086 18L12.1793 18.0707L18.4293 24.3207L18.5 24.3914L18.5707 24.3207L19.4457 23.4457L19.5164 23.375L19.4457 23.3043L14.1414 18L19.4457 12.6957L19.5164 12.625L19.4457 12.5543L18.5707 11.6793L18.5 11.6086L18.4293 11.6793L12.1793 17.9293Z" fill="#2765F5" stroke="#2765F5" stroke-width="0.2"/>
</g>
<defs>
<filter id="filter0_dd_858_24796" x="-5" y="0" width="42" height="42" filterUnits="userSpaceOnUse" color-interpolation-filters="sRGB">
<feFlood flood-opacity="0" result="BackgroundImageFix"/>
<feColorMatrix in="SourceAlpha" type="matrix" values="0 0 0 0 0 0 0 0 0 0 0 0 0 0 0 0 0 0 127 0" result="hardAlpha"/>
<feOffset/>
<feGaussianBlur stdDeviation="1"/>
<feColorMatrix type="matrix" values="0 0 0 0 0.0352941 0 0 0 0 0.117647 0 0 0 0 0.258824 0 0 0 0.31 0"/>
<feBlend mode="normal" in2="BackgroundImageFix" result="effect1_dropShadow_858_24796"/>
<feColorMatrix in="SourceAlpha" type="matrix" values="0 0 0 0 0 0 0 0 0 0 0 0 0 0 0 0 0 0 127 0" result="hardAlpha"/>
<feOffset dy="3"/>
<feGaussianBlur stdDeviation="2.5"/>
<feColorMatrix type="matrix" values="0 0 0 0 0.0352941 0 0 0 0 0.117647 0 0 0 0 0.258824 0 0 0 0.2 0"/>
<feBlend mode="normal" in2="effect1_dropShadow_858_24796" result="effect2_dropShadow_858_24796"/>
<feBlend mode="normal" in="SourceGraphic" in2="effect2_dropShadow_858_24796" result="shape"/>
</filter>
</defs>
</svg>
