<svg width="21" height="21" viewBox="0 0 21 21" fill="none" xmlns="http://www.w3.org/2000/svg">
<path fill-rule="evenodd" clip-rule="evenodd" d="M0 0H1.5V19.5H21V21H1.5C1.10218 21 0.720644 20.842 0.43934 20.5607C0.158035 20.2794 0 19.8978 0 19.5V0ZM15.75 5.25H21V10.5H19.5V7.8075L13.2825 14.0325C13.2128 14.1028 13.1298 14.1586 13.0384 14.1967C12.947 14.2347 12.849 14.2543 12.75 14.2543C12.651 14.2543 12.553 14.2347 12.4616 14.1967C12.3702 14.1586 12.2872 14.1028 12.2175 14.0325L9 10.8075L4.0575 15.75L3 14.6925L8.4675 9.2175C8.53722 9.1472 8.62017 9.09141 8.71157 9.05333C8.80296 9.01525 8.90099 8.99565 9 8.99565C9.09901 8.99565 9.19704 9.01525 9.28843 9.05333C9.37983 9.09141 9.46278 9.1472 9.5325 9.2175L12.75 12.4425L18.4425 6.75H15.75V5.25Z" fill="#494B4E"/>
</svg>
