<svg width="18" height="22" viewBox="0 0 18 22" fill="none" xmlns="http://www.w3.org/2000/svg">
<path fill-rule="evenodd" clip-rule="evenodd" d="M17.5602 21.0602C17.2789 21.3414 16.8977 21.4995 16.5 21.5H1.5C1.10232 21.4995 0.72105 21.3414 0.439844 21.0602C0.158638 20.7789 0.000456572 20.3977 0 20V2C0.000456572 1.60232 0.158638 1.22105 0.439844 0.939844C0.72105 0.658638 1.10232 0.500457 1.5 0.5H16.5C16.8977 0.500457 17.2789 0.658638 17.5602 0.939844C17.8414 1.22105 17.9995 1.60232 18 2V20C17.9995 20.3977 17.8414 20.7789 17.5602 21.0602ZM1.5 2V20H16.5V2H1.5ZM12 4.25H3.75V5.75H12V4.25ZM3.75 8H9V9.5H3.75V8Z" fill="#92969A"/>
</svg>
